lectures/l2_verilog/l2_code_3mux_single_cyle/top.vcd
$date
	Tue Sep 24 16:05:05 2019
$end
$version
	Icarus Verilog
$end
$timescale
	1ps
$end
$scope module top_tb $end
$var wire 1 ! data_out_valid $end
$var wire 32 " data_out [31:0] $end
$var reg 1 # clk $end
$var reg 8 $ data_in [7:0] $end
$var reg 1 % data_in_valid $end
$var reg 32 & data_out_ref [31:0] $end
$var reg 1 ' rst $end
$var integer 32 ( i [31:0] $end
$scope module uut $end
$var wire 1 # clk $end
$var wire 8 ) data_in [7:0] $end
$var wire 1 % data_in_valid $end
$var wire 32 * data_out [31:0] $end
$var wire 1 ! data_out_valid $end
$var wire 1 ' rst $end
$var wire 1 + reg_en $end
$var wire 32 , reg_data_out [31:0] $end
$var wire 32 - reg_data_in [31:0] $end
$var wire 17 . mult_B [16:0] $end
$var wire 17 / mult_A [16:0] $end
$var wire 2 0 count [1:0] $end
$var wire 1 1 cnt_rst $end
$var wire 1 2 cnt_en $end
$scope module cnt $end
$var wire 1 # clk $end
$var wire 1 1 rst $end
$var wire 1 2 en $end
$var reg 2 3 data_out [1:0] $end
$upscope $end
$scope module controler $end
$var wire 1 # clk $end
$var wire 2 4 cnt_data [1:0] $end
$var wire 1 2 cnt_en $end
$var wire 1 1 cnt_rst $end
$var wire 1 % data_in_valid $end
$var wire 1 + reg_en $end
$var wire 1 ' rst $end
$var reg 1 5 state $end
$var reg 1 6 state_nxt $end
$upscope $end
$scope module preg $end
$var wire 1 # clk $end
$var wire 32 7 data_in [31:0] $end
$var wire 1 + en $end
$var reg 32 8 data_out [31:0] $end
$upscope $end
$upscope $end
$upscope $end
$enddefinitions $end
#0
$dumpvars
bx 8
bx 7
06
05
bx 4
bx 3
02
01
bx 0
bx /
bx .
bx -
bx ,
x+
bx *
bx )
bx (
1'
bx &
0%
bx $
1#
bx "
0!
$end
#5000
0#
#10000
1#
#15000
0#
#20000
1#
#25000
0#
#30000
1#
#35000
0#
#40000
1#
#45000
0#
#50000
1#
#50100
1+
16
b10000 &
1!
11
1%
b10000 -
b10000 7
b100 /
b100 .
b10 $
b10 )
b0 (
0'
#55000
0#
#60000
12
b0 0
b0 3
b0 4
b10000 "
b10000 *
b10000 ,
b10000 8
15
1#
#60100
0!
01
0%
#65000
0#
#70000
b1 0
b1 3
b1 4
1#
#70100
b1010001 &
1!
11
1%
b1 (
b1001 /
b1010001 -
b1010001 7
b1001 .
b11 $
b11 )
#75000
0#
#80000
b0 0
b0 3
b0 4
b1010001 "
b1010001 *
b1010001 ,
b1010001 8
1#
#80100
0!
01
0%
#85000
0#
#90000
b1 0
b1 3
b1 4
1#
#90100
b100000000 &
1!
11
1%
b10 (
b10000 /
b100000000 -
b100000000 7
b10000 .
b100 $
b100 )
#95000
0#
#100000
b0 0
b0 3
b0 4
b100000000 "
b100000000 *
b100000000 ,
b100000000 8
1#
#100100
0!
01
0%
#105000
0#
#110000
b1 0
b1 3
b1 4
1#
#110100
b1001110001 &
1!
11
1%
b11 (
b11001 /
b1001110001 -
b1001110001 7
b11001 .
b101 $
b101 )
#115000
0#
#120000
b0 0
b0 3
b0 4
b1001110001 "
b1001110001 *
b1001110001 ,
b1001110001 8
1#
#120100
0!
01
0%
#125000
0#
#130000
b1 0
b1 3
b1 4
1#
#130100
b10100010000 &
1!
11
1%
b100 (
b100100 /
b10100010000 -
b10100010000 7
b100100 .
b110 $
b110 )
#135000
0#
#140000
b0 0
b0 3
b0 4
b10100010000 "
b10100010000 *
b10100010000 ,
b10100010000 8
1#
#140100
0!
01
0%
#145000
0#
#150000
b1 0
b1 3
b1 4
1#
#150100
b100101100001 &
1!
11
1%
b101 (
b110001 /
b100101100001 -
b100101100001 7
b110001 .
b111 $
b111 )
#155000
0#
#160000
b0 0
b0 3
b0 4
b100101100001 "
b100101100001 *
b100101100001 ,
b100101100001 8
1#
#160100
0!
01
0%
#165000
0#
#170000
b1 0
b1 3
b1 4
1#
#170100
b1000000000000 &
1!
11
1%
b110 (
b1000000 /
b1000000000000 -
b1000000000000 7
b1000000 .
b1000 $
b1000 )
#175000
0#
#180000
b0 0
b0 3
b0 4
b1000000000000 "
b1000000000000 *
b1000000000000 ,
b1000000000000 8
1#
#180100
0!
01
0%
#185000
0#
#190000
b1 0
b1 3
b1 4
1#
#190100
b1100110100001 &
1!
11
1%
b111 (
b1010001 /
b1100110100001 -
b1100110100001 7
b1010001 .
b1001 $
b1001 )
#195000
0#
#200000
b0 0
b0 3
b0 4
b1100110100001 "
b1100110100001 *
b1100110100001 ,
b1100110100001 8
1#
#200100
0!
01
0%
#205000
0#
#210000
b1 0
b1 3
b1 4
1#
#210100
b10011100010000 &
1!
11
1%
b1000 (
b1100100 /
b10011100010000 -
b10011100010000 7
b1100100 .
b1010 $
b1010 )
#215000
0#
#220000
b0 0
b0 3
b0 4
b10011100010000 "
b10011100010000 *
b10011100010000 ,
b10011100010000 8
1#
#220100
0!
01
0%
#225000
0#
#230000
b1 0
b1 3
b1 4
1#
#230100
b11100100110001 &
1!
11
1%
b1001 (
b1111001 /
b11100100110001 -
b11100100110001 7
b1111001 .
b1011 $
b1011 )
#235000
0#
#240000
b0 0
b0 3
b0 4
b11100100110001 "
b11100100110001 *
b11100100110001 ,
b11100100110001 8
1#
#240100
0!
01
0%
#245000
0#
#250000
b1 0
b1 3
b1 4
1#
#250100
b1010 (
b0 /
b0 -
b0 7
b0 .
b0 $
b0 )
